<?xml version="1.0" encoding="UTF-8" standalone="no"?>
<!-- Created with Inkscape (http://www.inkscape.org/) -->

<svg
   width="60.957619mm"
   height="28.785608mm"
   viewBox="0 0 60.957619 28.785608"
   version="1.1"
   id="svg700"
   xmlns:xlink="http://www.w3.org/1999/xlink"
   xmlns="http://www.w3.org/2000/svg"
   xmlns:svg="http://www.w3.org/2000/svg">
  <defs
     id="defs697">
    <linearGradient
       xlink:href="#paint0_linear_1504_615"
       id="linearGradient369"
       gradientUnits="userSpaceOnUse"
       x1="145.304"
       y1="7.1735601"
       x2="221.38499"
       y2="85.958"
       gradientTransform="translate(-399.20247,-213.94504)" />
    <linearGradient
       id="paint0_linear_1504_615"
       x1="145.304"
       y1="7.1735601"
       x2="221.38499"
       y2="85.958"
       gradientUnits="userSpaceOnUse">
      <stop
         offset="0.21"
         stop-color="#F15A24"
         id="stop40" />
      <stop
         offset="0.6841"
         stop-color="#FBB03B"
         id="stop42" />
    </linearGradient>
    <linearGradient
       xlink:href="#paint1_linear_1504_615"
       id="linearGradient371"
       gradientUnits="userSpaceOnUse"
       x1="85.086899"
       y1="101.622"
       x2="9.0056295"
       y2="22.8379"
       gradientTransform="translate(-399.20247,-213.94504)" />
    <linearGradient
       id="paint1_linear_1504_615"
       x1="85.086899"
       y1="101.622"
       x2="9.0056295"
       y2="22.8379"
       gradientUnits="userSpaceOnUse">
      <stop
         offset="0.21"
         stop-color="#ED1E79"
         id="stop45" />
      <stop
         offset="0.8929"
         stop-color="#522785"
         id="stop47" />
    </linearGradient>
  </defs>
  <g
     id="layer1"
     transform="translate(-72.252011,-56.359549)">
    <g
       id="g433"
       transform="matrix(0.26458333,0,0,0.26458333,177.87433,112.96584)">
      <path
         d="m -224.76947,-213.94504 c -12.879,0 -26.919,6.59974 -41.758,19.5992 -7.04,6.1598 -13.12,12.7595 -17.679,18.0393 0,0 0,0 0.04,0.04 v -0.04 c 0,0 7.199,7.8397 15.159,16.2394 4.28,-5.0798 10.44,-11.9995 17.519,-18.2393 13.2,-11.5595 21.799,-13.9994 26.719,-13.9994 18.52,0 33.559,14.6794 33.559,32.7187 0,17.9193 -15.079,32.5987 -33.559,32.7187 -0.84,0 -1.92,-0.12 -3.28,-0.4 5.4,2.3199 11.2,3.9999 16.72,3.9999 33.918,0 40.558,-22.1192 40.998,-23.7191 1,-4.0399 1.52,-8.2797 1.52,-12.6395 0,-29.9189 -25.119,-54.3179 -55.958,-54.3179 z"
         fill="url(#paint0_linear_1504_615)"
         id="path34-3"
         style="fill:url(#linearGradient369)" />
      <path
         d="m -343.24467,-105.14904 c 12.8795,0 26.919,-6.6 41.7584,-19.5994 7.0398,-6.1598 13.1198,-12.7595 17.6788,-18.0393 0,0 0,0 -0.04,-0.04 v 0.04 c 0,0 -7.199,-7.8397 -15.159,-16.2394 -4.2798,5.0798 -10.4395,11.9995 -17.5192,18.2393 -13.1995,11.5595 -21.7992,13.9994 -26.719,13.9994 -18.5193,-0.0399 -33.5587,-14.7194 -33.5587,-32.7587 0,-17.9193 15.0794,-32.5987 33.5587,-32.7187 0.84,0 1.9199,0.12 3.2799,0.4 -5.3998,-2.3199 -11.1996,-3.9999 -16.7194,-3.9999 -33.91864,0 -40.51838,22.1192 -40.99836,23.6791 -0.99996,4.0799 -1.51994,8.2797 -1.51994,12.6395 0,29.9989 25.119,54.3981 55.9578,54.3981 z"
         fill="url(#paint1_linear_1504_615)"
         id="path36-5"
         style="fill:url(#linearGradient371)" />
      <path
         d="m -211.40947,-123.74854 c -17.36,-0.44 -35.399,-14.1195 -39.079,-17.5193 -9.519,-8.7997 -31.479,-32.5988 -33.198,-34.4787 -16.0798,-18.0393 -37.879,-38.1985 -59.5581,-38.1985 h -0.04 -0.04 c -26.319,0.11999 -48.43811,17.9593 -54.35788,41.7584 0.43998,-1.56 9.11968,-24.1191 40.95838,-23.3191 17.3593,0.44 35.4786,14.3194 39.1985,17.7193 9.5196,8.7996 31.4791,32.5987 33.1991,34.4786 16.079,17.9993 37.878,38.1588 59.557,38.1588 h 0.04 0.04 c 26.319,-0.12 48.478,-17.9595 54.358,-41.7586 -0.48,1.5599 -9.2,23.9191 -41.078,23.1591 z"
         fill="#29abe2"
         id="path38-6" />
    </g>
  </g>
</svg>
